<?xml version="1.0" encoding="UTF-8"?>
<svg xmlns="http://www.w3.org/2000/svg" xmlns:xlink="http://www.w3.org/1999/xlink" width="56pt" height="56pt" viewBox="0 0 56 56" version="1.1">
<g id="surface1">
<path style="fill:none;stroke-width:2;stroke-linecap:butt;stroke-linejoin:miter;stroke:rgb(86.666667%,4.313725%,0%);stroke-opacity:1;stroke-miterlimit:4;" d="M 55 28 C 55 42.910156 42.910156 55 28 55 C 13.089844 55 1 42.910156 1 28 C 1 13.089844 13.089844 1 28 1 C 42.910156 1 55 13.089844 55 28 Z M 55 28 "/>
<path style=" stroke:none;fill-rule:nonzero;fill:rgb(86.666667%,4.313725%,0%);fill-opacity:1;" d="M 54.738281 10.230469 C 54.738281 14.425781 51.335938 17.828125 47.140625 17.828125 C 42.941406 17.828125 39.539062 14.425781 39.539062 10.230469 C 39.539062 6.03125 42.941406 2.628906 47.140625 2.628906 C 51.335938 2.628906 54.738281 6.03125 54.738281 10.230469 Z M 54.738281 10.230469 "/>
<path style=" stroke:none;fill-rule:nonzero;fill:rgb(100%,100%,100%);fill-opacity:1;" d="M 47 1.960938 C 42.582031 1.960938 39 5.542969 39 9.960938 C 39 14.378906 42.582031 17.960938 47 17.960938 C 51.417969 17.960938 55 14.378906 55 9.960938 C 55 5.542969 51.417969 1.960938 47 1.960938 Z M 47 16.460938 C 43.410156 16.460938 40.5 13.550781 40.5 9.960938 C 40.5 6.371094 43.410156 3.460938 47 3.460938 C 50.589844 3.460938 53.5 6.371094 53.5 9.960938 C 53.511719 11.691406 52.835938 13.355469 51.613281 14.585938 C 50.394531 15.8125 48.730469 16.503906 47 16.5 Z M 47 16.460938 "/>
<path style=" stroke:none;fill-rule:nonzero;fill:rgb(100%,100%,100%);fill-opacity:1;" d="M 46.761719 10.378906 L 46.929688 10.550781 L 48.671875 12.320312 C 48.828125 12.476562 49.082031 12.476562 49.238281 12.320312 C 49.398438 12.164062 49.398438 11.90625 49.238281 11.75 L 47.621094 10.179688 L 47.339844 9.878906 L 45.621094 8.148438 C 45.550781 8.070312 45.449219 8.023438 45.339844 8.023438 C 45.234375 8.023438 45.128906 8.070312 45.058594 8.148438 C 44.976562 8.222656 44.929688 8.324219 44.929688 8.433594 C 44.929688 8.542969 44.976562 8.648438 45.058594 8.71875 L 46.539062 10.171875 Z M 46.761719 10.378906 "/>
<path style=" stroke:none;fill-rule:nonzero;fill:rgb(100%,100%,100%);fill-opacity:1;" d="M 47.300781 10.609375 L 49.21875 8.691406 C 49.300781 8.621094 49.347656 8.515625 49.347656 8.410156 C 49.347656 8.300781 49.300781 8.199219 49.21875 8.128906 C 49.148438 8.046875 49.042969 8 48.933594 8 C 48.824219 8 48.722656 8.046875 48.648438 8.128906 L 47.078125 9.71875 L 46.789062 10 L 45.070312 11.78125 C 44.988281 11.851562 44.941406 11.953125 44.941406 12.058594 C 44.941406 12.167969 44.988281 12.269531 45.070312 12.339844 C 45.140625 12.421875 45.246094 12.46875 45.355469 12.46875 C 45.464844 12.46875 45.566406 12.421875 45.640625 12.339844 L 47.078125 10.851562 Z M 47.300781 10.609375 "/>
<path style=" stroke:none;fill-rule:nonzero;fill:rgb(47.058824%,47.058824%,47.058824%);fill-opacity:1;" d="M 28.390625 47.441406 C 28.328125 47.300781 28.179688 47.289062 28.070312 47.238281 L 11.621094 39.699219 C 11.203125 39.554688 10.941406 39.136719 11 38.699219 C 11 32.308594 11 25.921875 11 19.539062 C 10.9375 19.050781 11.238281 18.589844 11.710938 18.449219 C 17.191406 16.035156 22.664062 13.613281 28.128906 11.179688 C 28.488281 11 28.910156 11 29.269531 11.179688 C 34.761719 13.621094 40.25 16.050781 45.730469 18.46875 C 46.183594 18.613281 46.472656 19.058594 46.421875 19.53125 C 46.421875 25.917969 46.421875 32.308594 46.421875 38.699219 C 46.449219 39.136719 46.195312 39.539062 45.789062 39.699219 C 40.238281 42.21875 34.691406 44.753906 29.160156 47.300781 C 29.078125 47.300781 28.96875 47.300781 28.921875 47.429688 Z M 28.390625 47.441406 "/>
<path style=" stroke:none;fill-rule:nonzero;fill:rgb(99.607843%,99.607843%,99.607843%);fill-opacity:1;" d="M 45.011719 20.328125 L 45.011719 23.789062 C 45.011719 28.582031 45.011719 33.371094 45.011719 38.148438 C 45.042969 38.394531 44.902344 38.628906 44.671875 38.710938 C 39.671875 40.984375 34.671875 43.261719 29.671875 45.550781 C 29.339844 45.699219 29.320312 45.628906 29.320312 45.320312 C 29.320312 39.480469 29.320312 33.628906 29.320312 27.789062 C 29.292969 27.589844 29.425781 27.40625 29.621094 27.359375 L 44.789062 20.429688 Z M 45.011719 20.328125 "/>
<path style=" stroke:none;fill-rule:nonzero;fill:rgb(99.607843%,99.607843%,99.607843%);fill-opacity:1;" d="M 27.929688 45.671875 L 25.078125 44.371094 L 12.671875 38.710938 C 12.433594 38.636719 12.285156 38.40625 12.320312 38.160156 C 12.320312 32.347656 12.320312 26.539062 12.320312 20.738281 L 12.320312 20.378906 C 12.441406 20.320312 12.53125 20.378906 12.621094 20.460938 L 15.910156 21.960938 C 16.117188 22.019531 16.246094 22.21875 16.21875 22.429688 C 16.21875 24.679688 16.21875 26.929688 16.21875 29.191406 C 16.152344 29.628906 16.410156 30.050781 16.828125 30.191406 C 18.261719 30.851562 19.671875 31.53125 21.101562 32.191406 C 21.828125 32.53125 22.269531 32.25 22.269531 31.429688 L 22.269531 24.960938 C 22.410156 24.910156 22.488281 24.960938 22.578125 25.039062 L 27.710938 27.371094 C 27.898438 27.460938 28 27.539062 28 27.78125 C 28 33.671875 28 39.558594 28 45.460938 C 28.003906 45.535156 27.980469 45.613281 27.929688 45.671875 Z M 27.929688 45.671875 "/>
<path style=" stroke:none;fill-rule:nonzero;fill:rgb(99.607843%,99.607843%,99.607843%);fill-opacity:1;" d="M 23.308594 23.828125 L 30.390625 20.421875 L 37.820312 16.828125 C 37.964844 16.730469 38.152344 16.707031 38.320312 16.769531 C 40.128906 17.589844 41.960938 18.398438 43.789062 19.199219 C 43.847656 19.222656 43.894531 19.265625 43.921875 19.320312 L 34.230469 23.75 L 28.949219 26.171875 C 28.792969 26.25 28.605469 26.25 28.449219 26.171875 L 23.449219 23.898438 Z M 23.308594 23.828125 "/>
<path style=" stroke:none;fill-rule:nonzero;fill:rgb(99.607843%,99.607843%,99.607843%);fill-opacity:1;" d="M 20.898438 30.550781 L 17.738281 29.058594 C 17.625 29.023438 17.554688 28.910156 17.570312 28.789062 C 17.570312 26.730469 17.570312 24.671875 17.570312 22.609375 C 17.570312 22.371094 17.71875 22.339844 17.859375 22.269531 L 27.171875 17.78125 C 29.171875 16.78125 31.261719 15.78125 33.289062 14.828125 C 33.488281 14.726562 33.722656 14.726562 33.921875 14.828125 L 36.480469 15.960938 L 33.03125 17.628906 C 29.191406 19.480469 25.359375 21.328125 21.511719 23.171875 C 21.109375 23.332031 20.859375 23.738281 20.890625 24.171875 C 20.890625 26.171875 20.890625 28.171875 20.890625 30.171875 Z M 20.898438 30.550781 "/>
<path style=" stroke:none;fill-rule:nonzero;fill:rgb(99.607843%,99.607843%,99.607843%);fill-opacity:1;" d="M 31.921875 13.960938 L 26.179688 16.71875 C 23.292969 18.132812 20.398438 19.546875 17.5 20.960938 C 17.328125 21.054688 17.121094 21.054688 16.949219 20.960938 C 15.78125 20.410156 14.601562 19.878906 13.359375 19.308594 L 14.921875 18.609375 L 28.390625 12.609375 C 28.566406 12.515625 28.773438 12.515625 28.949219 12.609375 L 31.621094 13.820312 C 31.730469 13.859375 31.851562 13.871094 31.921875 13.960938 Z M 31.921875 13.960938 "/>
</g>
</svg>
