<svg id="Camada_1" data-name="Camada 1" xmlns="http://www.w3.org/2000/svg" viewBox="0 0 58.1 58.1">
  <defs>
    <style>
      .cls-1, .cls-5, .cls-7 {
        fill: none;
      }

      .cls-1 {
        stroke: #ff9100;
        stroke-width: 2px;
      }

      .cls-2 {
        fill: #ff9100;
      }

      .cls-3, .cls-6 {
        fill: #fff;
      }

      .cls-4 {
        fill: #787878;
      }

      .cls-5, .cls-6, .cls-7 {
        stroke: #787878;
      }

      .cls-5, .cls-6 {
        stroke-miterlimit: 10;
      }

      .cls-7 {
        stroke-linecap: round;
        stroke-linejoin: round;
      }
    </style>
  </defs>
  <g id="Camada_2" data-name="Camada 2">
    <g>
      <circle class="cls-1" cx="28.6" cy="30" r="27"/>
      <circle class="cls-2" cx="47.7" cy="12.2" r="7.6"/>
      <path class="cls-3" d="M47.6,4a8,8,0,1,0,8,8A8,8,0,0,0,47.6,4Zm0,14.6A6.59,6.59,0,0,1,41,12a6.5,6.5,0,0,1,13,0A6.49,6.49,0,0,1,47.6,18.6Z"/>
      <g>
        <path class="cls-3" d="M48.4,13.5V9a.77.77,0,0,0-.7-.8A.71.71,0,0,0,47,9v4.5a.68.68,0,0,0,.7.7C48,14.2,48.3,14,48.4,13.5Z"/>
        <ellipse class="cls-3" cx="47.7" cy="15.4" rx="0.7" ry="0.8"/>
      </g>
    </g>
  </g>
  <g id="Camada_2-2" data-name="Camada 2">
    <g id="Camada_1-2" data-name="Camada 1-2">
      <g id="Camada_2-2-2" data-name="Camada 2-2">
        <g>
          <g>
            <rect class="cls-4" x="19.4" y="29.06" width="15.43" height="1.07" rx="0.53"/>
            <rect class="cls-4" x="19.4" y="32.07" width="15.43" height="1.07" rx="0.53"/>
            <rect class="cls-4" x="29.49" y="35.43" width="5.35" height="1.07" rx="0.53"/>
            <rect class="cls-4" x="19.4" y="35.44" width="9.1" height="1.06" rx="0.53"/>
          </g>
          <path class="cls-5" d="M39,22.18l-7.85-7.13a2.26,2.26,0,0,0-1.54-.6H19.29a4.33,4.33,0,0,0-4.18,4.47v25a4.33,4.33,0,0,0,4.18,4.47h16.3a4.08,4.08,0,0,0,2.62-1l1.68-12.92V24.31A2.86,2.86,0,0,0,39,22.18Zm.44,1.22H33a2.74,2.74,0,0,1-2.73-2.74h0l0-5.84a.11.11,0,0,1,.11-.11h0a.11.11,0,0,1,.08,0L39,22.33C39.16,22.51,39.66,23.4,39.4,23.4Z"/>
        </g>
      </g>
      <ellipse class="cls-6" cx="39.46" cy="41.02" rx="6.56" ry="6.57"/>
      <polyline class="cls-7" points="35.97 40.46 38.64 44.14 42.94 37.87"/>
    </g>
  </g>
</svg>
