<svg id="Camada_1" data-name="Camada 1" xmlns="http://www.w3.org/2000/svg" viewBox="0 0 58.1 58.1">
  <defs>
    <style>
      .cls-1, .cls-3, .cls-5 {
        fill: none;
      }

      .cls-1, .cls-3, .cls-4, .cls-5 {
        stroke: #787878;
      }

      .cls-1, .cls-3, .cls-4 {
        stroke-miterlimit: 10;
      }

      .cls-1 {
        stroke-width: 2px;
      }

      .cls-2 {
        fill: #787878;
      }

      .cls-4 {
        fill: #fff;
      }

      .cls-5 {
        stroke-linecap: round;
        stroke-linejoin: round;
      }
    </style>
  </defs>
  <g id="Camada_2" data-name="Camada 2">
    <circle id="_1" data-name="1" class="cls-1" cx="28.9" cy="30.1" r="26.9"/>
  </g>
  <g id="Camada_2-2" data-name="Camada 2">
    <g id="Camada_1-2" data-name="Camada 1-2">
      <g id="Camada_2-2-2" data-name="Camada 2-2">
        <g>
          <g>
            <path class="cls-2" d="M20,28.91H34.37a.54.54,0,0,1,.53.54h0a.54.54,0,0,1-.53.54H20a.53.53,0,0,1-.53-.54h0A.53.53,0,0,1,20,28.91Z"/>
            <path class="cls-2" d="M20,31.94H34.37a.54.54,0,0,1,.53.54h0a.54.54,0,0,1-.53.54H20a.53.53,0,0,1-.53-.54h0A.53.53,0,0,1,20,31.94Z"/>
            <path class="cls-2" d="M30.08,35.33h4.29a.53.53,0,0,1,.53.53h0a.54.54,0,0,1-.53.54H30.08a.53.53,0,0,1-.53-.54h0A.52.52,0,0,1,30.08,35.33Z"/>
            <rect class="cls-2" x="19.46" y="35.33" width="9.11" height="1.07" rx="0.53"/>
          </g>
          <path class="cls-3" d="M39,22,31.17,14.8a2.31,2.31,0,0,0-1.54-.6H19.34a4.35,4.35,0,0,0-4.18,4.5V43.85a4.34,4.34,0,0,0,4.18,4.5H35.65a3.94,3.94,0,0,0,2.62-1l1.68-13V24.12A2.89,2.89,0,0,0,39,22Zm.43,1.23H33.05a2.74,2.74,0,0,1-2.73-2.75h0l0-5.89a.11.11,0,0,1,.11-.11h0a.11.11,0,0,1,.08,0L39,22.14C39.23,22.32,39.73,23.21,39.46,23.21Z"/>
        </g>
      </g>
      <ellipse class="cls-4" cx="39.52" cy="40.95" rx="6.56" ry="6.62"/>
      <polyline class="cls-5" points="39.34 36.89 39.34 41.74 43.62 41.74"/>
    </g>
  </g>
</svg>
