<svg id="Camada_1" data-name="Camada 1" xmlns="http://www.w3.org/2000/svg" viewBox="0 0 58.1 58.1">
  <defs>
    <style>
      .cls-1 {
        fill: none;
        stroke-width: 2px;
      }

      .cls-1, .cls-2 {
        stroke: #787878;
        stroke-miterlimit: 10;
      }

      .cls-2 {
        fill: #fff;
      }

      .cls-3 {
        fill: #787878;
      }
    </style>
  </defs>
  <g id="Camada_2" data-name="Camada 2">
    <circle id="_1" data-name="1" class="cls-1" cx="28.9" cy="30.1" r="26.9"/>
  </g>
  <g id="Camada_2-2" data-name="Camada 2">
    <g id="atras">
      <g>
        <path class="cls-2" d="M41,18a4.93,4.93,0,0,0-4.93-4.93H20.38a4.33,4.33,0,0,0-4.18,4.47v25A4.33,4.33,0,0,0,20.38,47H37a4,4,0,0,0,4-4V18Zm-9.62,1.28"/>
        <g>
          <rect class="cls-3" x="20.49" y="28.7" width="15.43" height="1.07" rx="0.53"/>
          <rect class="cls-3" x="20.49" y="31.71" width="15.43" height="1.07" rx="0.53"/>
          <rect class="cls-3" x="30.58" y="35.07" width="5.35" height="1.07" rx="0.53"/>
          <rect class="cls-3" x="20.49" y="35.08" width="9.1" height="1.06" rx="0.53"/>
          <rect class="cls-3" x="20.49" y="22.45" width="15.43" height="1.07" rx="0.53"/>
          <rect class="cls-3" x="20.49" y="25.46" width="15.43" height="1.07" rx="0.53"/>
        </g>
      </g>
    </g>
    <g id="frente">
      <g>
        <path class="cls-2" d="M38.17,19.81a4.93,4.93,0,0,0-4.93-4.93H17.57a4.33,4.33,0,0,0-4.18,4.47v25a4.33,4.33,0,0,0,4.18,4.47H34.16a4,4,0,0,0,4-4v-25Zm-9.62,1.28"/>
        <g>
          <rect class="cls-3" x="17.67" y="30.5" width="15.43" height="1.07" rx="0.53"/>
          <rect class="cls-3" x="17.67" y="33.51" width="15.43" height="1.07" rx="0.53"/>
          <rect class="cls-3" x="27.76" y="36.87" width="5.35" height="1.07" rx="0.53"/>
          <rect class="cls-3" x="17.67" y="36.88" width="9.1" height="1.06" rx="0.53"/>
          <rect class="cls-3" x="17.67" y="24.26" width="15.43" height="1.07" rx="0.53"/>
          <rect class="cls-3" x="17.67" y="27.27" width="15.43" height="1.07" rx="0.53"/>
        </g>
      </g>
    </g>
  </g>
</svg>
