<?xml version="1.0" encoding="utf-8"?>
<!-- Generator: Adobe Illustrator 24.3.0, SVG Export Plug-In . SVG Version: 6.00 Build 0)  -->
<svg version="1.1" xmlns="http://www.w3.org/2000/svg" xmlns:xlink="http://www.w3.org/1999/xlink" x="0px" y="0px"
	 viewBox="0 0 58.1 58.1" style="enable-background:new 0 0 58.1 58.1;" xml:space="preserve">
<style type="text/css">
	.st0{display:none;}
	.st1{display:inline;fill:#FFFFFF;stroke:#787878;stroke-width:2;}
	.st2{display:inline;fill:#787878;stroke:#787878;stroke-width:0.4;}
	.st3{display:inline;fill:none;stroke:#787878;stroke-width:2;stroke-miterlimit:10;}
	.st4{display:inline;fill:#787878;}
	.st5{display:inline;fill:#787878;stroke:#787878;stroke-width:0.15;stroke-miterlimit:10;}
	.st6{display:inline;fill:#FFFFFF;}
	.st7{fill:#787878;stroke:#787878;stroke-width:1.000000e-02;stroke-miterlimit:10;}
	.st8{fill:#787878;stroke:#787878;stroke-width:0.25;stroke-miterlimit:10;}
	.st9{fill:#787878;stroke:#787878;stroke-width:0.5;stroke-miterlimit:10;}
	.st10{fill:none;stroke:#787878;stroke-width:1.5;stroke-miterlimit:10;}
	.st11{display:inline;fill:#787878;stroke:#9E9D9D;stroke-width:5.000000e-02;stroke-miterlimit:10;}
	.st12{display:inline;fill:#787878;stroke:#787878;stroke-width:1.000000e-02;stroke-miterlimit:10;}
	.st13{display:inline;fill:none;stroke:#787878;stroke-width:1.5;stroke-miterlimit:10;}
	.st14{display:inline;fill:#043061;stroke:#787878;stroke-width:1.5;stroke-miterlimit:10;}
	.st15{display:inline;fill:#043061;stroke:#787878;stroke-miterlimit:10;}
	.st16{display:inline;fill:#FEFEFE;}
	.st17{display:inline;fill:none;stroke:#1C9930;stroke-width:2;}
	.st18{display:inline;fill:#1C9930;}
	.st19{fill:none;stroke:#FF9100;stroke-width:2;}
	.st20{fill:#FF9100;}
	.st21{fill:#FFFFFF;}
</style>
<g id="Camada_1" class="st0">
	<circle class="st1" cx="28.9" cy="30.1" r="27"/>
	<path class="st2" d="M22.3,36.8L22.3,36.8c-0.8-0.8-0.8-2.1,0-2.9l4.5-4.2l0,0c0.9-0.8,2.2-0.8,3.1,0l0.1-0.1l-0.1,0.1
		c0.4,0.4,1,0.4,1.4,0c0.4-0.4,0.4-1,0-1.4c-1.6-1.5-4.2-1.5-5.9,0l-4.5,4.2c-1.6,1.5-1.6,4,0,5.6c1.6,1.5,4.2,1.5,5.9,0L29,36
		c0.4-0.4,0.4-1,0-1.4c-0.4-0.4-1-0.4-1.4,0l-2.2,2.1C24.5,37.6,23.1,37.6,22.3,36.8z"/>
	<path class="st2" d="M33.4,23.4L33.4,23.4c0.9-0.8,2.2-0.8,3.1,0c0.8,0.8,0.8,2.1,0,2.9l-4.9,4.7c-0.9,0.8-2.2,0.8-3.1,0l-0.1,0.1
		l0.1-0.1c-0.4-0.4-1-0.4-1.4,0c-0.4,0.4-0.4,1,0,1.4c1.6,1.5,4.2,1.5,5.9,0l4.9-4.7c1.6-1.5,1.6-4,0-5.6c-1.6-1.5-4.3-1.5-5.9,0
		l-2.7,2.5c-0.4,0.4-0.4,1,0,1.4c0.4,0.4,1,0.4,1.4,0L33.4,23.4z"/>
</g>
<g id="Camada_2">
	<g class="st0">
		<circle id="_x31__20_" class="st3" cx="28.9" cy="30.1" r="26.9"/>
	</g>
	<g class="st0">
		<path class="st4" d="M28.8,48.9c-1.2-0.4-2.4-0.8-3.6-1.2c-2.8-0.9-5.6-1.9-8.4-2.8c-0.6-0.2-0.7-0.4-0.7-1c0-3.3,0-6.6,0-10
			c0-0.3-0.1-0.4-0.4-0.5c-1.2-0.3-2.4-0.7-3.6-1.1c-0.8-0.2-0.9-0.6-0.5-1.3c0.9-1.4,1.8-2.8,2.8-4.3c-0.1,0-0.3-0.1-0.3-0.2
			c-1.4-1.2-2.7-2.5-4.1-3.7c-0.7-0.6-0.5-1.1,0.4-1.4c4-1.1,8-2.2,12-3.4c0.3-0.1,0.4-0.2,0.5-0.4c1.3-2.5,4.1-4.1,7.3-4
			c3,0.1,5.7,1.9,6.7,4.5c0.1,0.3,0.3,0.4,0.5,0.5c3.4,0.9,6.8,1.9,10.2,2.8c0.4,0.1,0.7,0.2,0.8,0.5c0,0.1,0,0.3,0,0.4
			c-0.2,0.2-0.3,0.4-0.5,0.6c-1.3,1.2-2.6,2.3-3.9,3.5c-0.1,0.1-0.2,0.2-0.3,0.3c0.1,0.1,0.3,0.2,0.4,0.2c1.3,1.1,2.6,2.3,3.8,3.5
			c0.2,0.2,0.4,0.4,0.5,0.6c0,0.1,0,0.3,0,0.4c-0.2,0.3-0.5,0.4-0.8,0.5c-1.3,0.4-2.6,0.7-3.8,1.1c-0.3,0.1-0.4,0.2-0.4,0.4
			c0,3.4,0,6.8,0,10.2c0,0.7-0.1,0.8-0.8,1c-3.3,1-6.6,2-9.9,3c-1.2,0.4-2.3,0.7-3.5,1.1C29.1,48.9,29,48.9,28.8,48.9z M42,43.6
			c0-3.3,0-6.6,0-9.9c-0.2,0-0.3,0.1-0.5,0.1c-2.6,0.7-5.3,1.5-7.9,2.2c-0.6,0.2-0.8,0.1-1.2-0.3c-0.7-0.8-1.4-1.6-2.2-2.4
			c-0.1-0.1-0.2-0.2-0.4-0.4c0,4.8,0,9.6,0,14.3C33.9,46,37.9,44.8,42,43.6z M17.6,34c0,0.1,0,0.3,0,0.4c0,3,0,5.9,0,8.9
			c0,0.3,0.1,0.4,0.4,0.5c3.3,1.1,6.6,2.2,9.9,3.3c0.1,0,0.2,0.1,0.4,0.1c0-4.6,0-9.1,0-13.7c-0.6,0.9-1.1,1.7-1.6,2.4
			c-0.4,0.5-0.6,0.6-1.3,0.4c-1.4-0.4-2.8-0.8-4.1-1.2C20,34.7,18.8,34.4,17.6,34z M29.8,26.1c3.3,0,6.1-2.5,6.1-5.4
			c0-3.1-2.7-5.5-6.1-5.5c-3.3,0-6.1,2.5-6.1,5.4C23.7,23.7,26.4,26.2,29.8,26.1z M46.3,31c-0.1-0.1-0.2-0.2-0.3-0.3
			c-1.1-1-2.1-1.9-3.2-2.9c-0.2-0.2-0.4-0.2-0.7-0.1c-3.8,1.1-7.6,2.3-11.4,3.4c-0.1,0-0.3,0.1-0.4,0.1c1,1.1,1.9,2.1,2.8,3.2
			c0.2,0.2,0.3,0.2,0.6,0.2c3-0.8,5.9-1.7,8.9-2.5C43.8,31.7,45.1,31.4,46.3,31z M13.3,31.3c4.1,1.2,8.2,2.4,12.2,3.7
			c0.8-1.2,1.6-2.4,2.4-3.6c-4.1-1.2-8.2-2.4-12.2-3.7C14.9,28.9,14.1,30,13.3,31.3z M17.8,26.8c0.2,0.1,0.2,0.1,0.3,0.1
			c3.6,1.1,7.1,2.1,10.7,3.2c0.2,0.1,0.4,0,0.6,0c3.5-1,7-2.1,10.5-3.1c0.1,0,0.2-0.1,0.4-0.1c-1.7-0.5-3.2-1-4.7-1.4
			c-0.1,0-0.3,0.1-0.4,0.1c-3.2,2.7-8.1,2.6-11-0.3c-0.2-0.2-0.3-0.2-0.6-0.1c-1.7,0.5-3.5,1-5.2,1.6C18.2,26.7,18,26.8,17.8,26.8z
			 M22.2,19.7c-3.4,1-6.9,1.9-10.4,2.9c0.1,0.1,0.1,0.1,0.1,0.2c1.1,1,2.3,2.1,3.4,3.1c0.2,0.2,0.3,0.1,0.5,0.1
			c2.3-0.7,4.6-1.4,6.8-2.1c0.1,0,0.2-0.1,0.2-0.1c-0.2-0.7-0.5-1.3-0.6-2C22.2,21.1,22.2,20.4,22.2,19.7z M37.4,20.2
			c0.1,1.5-0.3,2.8-1.1,4c2,0.6,4,1.2,6,1.8c0.1,0,0.3,0,0.4-0.1c1.1-1,2.2-2,3.3-3c0.1-0.1,0.1-0.1,0.2-0.2
			C43.3,21.8,40.4,21,37.4,20.2z"/>
		<path class="st4" d="M27.2,43.8c-0.5-0.2-1-0.4-1.6-0.6c-0.2-0.1-0.3-0.4-0.2-0.6c0.1-0.2,0.4-0.4,0.6-0.3c0.5,0.1,1,0.3,1.5,0.5
			c0.2,0.1,0.3,0.3,0.2,0.6C27.7,43.6,27.5,43.7,27.2,43.8z"/>
		<path class="st4" d="M24.9,41.8c0.3,0,0.6,0.2,0.6,0.5c0,0.3-0.3,0.5-0.6,0.5c-0.3,0-0.6-0.2-0.6-0.5
			C24.3,42.1,24.6,41.8,24.9,41.8z"/>
		<path class="st4" d="M27.4,46.3c-0.1,0-0.2,0-0.3-0.1c-1.4-0.5-2.8-0.9-4.3-1.4c-0.1,0-0.3-0.1-0.4-0.2c-0.2-0.2-0.3-0.4-0.2-0.7
			c0.1-0.3,0.3-0.4,0.7-0.4c0.1,0,0.3,0,0.4,0.1c1.5,0.5,2.9,1,4.4,1.4c0.3,0.1,0.5,0.3,0.6,0.6C28.3,46,27.9,46.3,27.4,46.3z"/>
		<path class="st4" d="M28.4,21.7c0.1-0.1,0.2-0.2,0.3-0.3c1.2-1,2.3-2,3.5-3.1c0.1-0.1,0.1-0.1,0.2-0.2c0.4-0.3,0.8-0.3,1.1,0
			c0.3,0.3,0.3,0.6,0,1c-0.1,0.1-0.1,0.1-0.2,0.1c-1.4,1.2-2.8,2.5-4.2,3.7c-0.6,0.5-0.9,0.5-1.5,0c-0.4-0.4-0.9-0.7-1.3-1.1
			c-0.4-0.4-0.2-1.1,0.4-1.1c0.2,0,0.6,0.1,0.8,0.3C27.9,21.2,28.1,21.5,28.4,21.7z"/>
	</g>
	<g class="st0">
		<path class="st5" d="M28.7,11.5c2.5,0,4.5,1,6.2,2.7c1.7,1.9,2.5,4.1,2.3,6.6C37,25,33.4,29,28.4,29c-4.4-0.1-8.6-3.9-8.3-9.3
			c0.1-2.4,1.1-4.3,2.8-5.9C24.5,12.2,26.5,11.5,28.7,11.5z"/>
		<path class="st5" d="M19,48.9c-0.1-0.2-0.3-0.2-0.5-0.2c-1.1-0.2-2-0.8-2.8-1.6c-0.9-0.9-1.4-2-1.6-3.3c-0.2-1.2-0.1-2.3-0.1-3.5
			c0.2-2.4,0.6-4.8,1.7-6.9c1-1.9,2.4-3.3,4.5-3.8c0.5-0.1,1-0.2,1.6-0.2c0.4,0,0.7,0.3,1.1,0.5c0.8,0.5,1.5,1.1,2.4,1.5
			c1.4,0.7,2.8,1,4.3,0.8c1.5-0.2,2.8-0.8,4-1.7c0.4-0.3,0.8-0.6,1.3-0.9c0.8-0.5,1.6-0.3,2.4-0.1c1.2,0.2,2.2,0.8,3.1,1.6
			c0.7,0.7,1.3,1.6,1.7,2.5c0.2,0.4,0.4,0.9,0.6,1.4c0.1,0.2,0.2,0.2,0.3,0.3c1.3,1.2,2.2,2.8,2.5,4.6c0.3,1.3,0.2,2.6-0.2,3.8
			c-0.9,2.5-2.5,4.3-5.1,5c0,0-0.1,0-0.1,0.1C33.1,48.9,26.1,48.9,19,48.9z"/>
		<path class="st6" d="M33.1,46.7c-0.1,0-0.2,0-0.3,0c-4.2,0-8.5,0-12.7,0c-1.4,0-2.6-0.5-3.4-1.9c-0.4-0.7-0.5-1.4-0.6-2.1
			c0-1.8,0.1-3.6,0.5-5.3c0.3-1.4,0.7-2.7,1.6-3.8c0.8-1.1,2-1.8,3.4-1.8c0.1,0,0.3,0,0.4,0.1c0.9,0.6,1.7,1.2,2.6,1.7
			c1.2,0.6,2.4,0.9,3.8,1c1.9,0.1,3.6-0.4,5.2-1.2c0.6-0.3,1.3-0.7,1.8-1.2c0.6-0.4,1.1-0.5,1.7-0.3c1,0.3,1.8,0.8,2.4,1.7
			c0.1,0.1,0.1,0.2,0.1,0.3c-0.1,0.1-0.2,0-0.3,0c-1.8-0.1-3.5,0.2-5,1.3c-1.7,1.3-2.7,2.9-3,5.1c-0.3,2.4,0.2,4.5,1.8,6.4
			C33.1,46.6,33.1,46.6,33.1,46.7z"/>
		<path class="st6" d="M43.7,41.1c0.2,3.3-2.4,5.7-4.7,5.9c-3.4,0.3-5.5-2.6-5.7-4.9c-0.3-3.7,2.5-5.9,4.7-6.1
			C41.3,35.6,43.7,38.6,43.7,41.1z"/>
		<path class="st6" d="M28.8,13.8c0.8-0.1,1.6,0.1,2.4,0.5c0.7,0.3,1.4,0.8,1.9,1.4c0.8,0.8,1.3,1.7,1.7,2.8
			c0.2,0.7,0.3,1.4,0.3,2.1c0,0.7-0.1,1.4-0.3,2.1c-0.4,1.4-1.2,2.4-2.3,3.3c-0.7,0.6-1.5,0.9-2.4,1.1c-1,0.2-2,0.2-3,0
			c-0.9-0.2-1.8-0.6-2.4-1.3c-0.4-0.4-0.8-0.8-1.2-1.3c-0.3-0.5-0.6-1.1-0.8-1.6c-0.4-1.3-0.5-2.6-0.2-3.9c0.4-1.7,1.3-3.1,2.7-4.1
			C26.2,14,27.4,13.7,28.8,13.8z"/>
		<path class="st5" d="M37.8,40.6c0-0.3,0-0.5,0-0.8c0-0.3,0-1,0.2-1.1c0.4-0.3,1-0.1,1.2,0.4c0,0.1,0.1,0.6,0.1,0.7
			c0,0.9,0,0.9,0.8,0.9c0.2,0,0.9,0,1.2,0.1c0.3,0.1,0.3,0.3,0.4,0.5c0,0.2-0.1,0.5-0.4,0.6c-0.2,0.1-0.8,0.2-0.9,0.2
			c-0.6,0.1-1.3,0.1-1.9,0c-0.3-0.1-0.5-0.4-0.5-0.7C37.8,41.2,37.8,40.9,37.8,40.6z"/>
	</g>
	<g class="st0">
		<path class="st4" d="M32.7,47.1c3.4,0,6.9,0,10.3,0c0.1,0,0.3,0,0.5,0c-0.1-0.1-0.2-0.2-0.3-0.3c-3.6-3.4-7.2-6.7-10.8-10.1
			c-0.2-0.2-0.4-0.2-0.6-0.1c-0.8,0.5-1.6,1-2.3,1.5c-0.4,0.3-0.8,0.3-1.2,0c-0.8-0.5-1.6-1-2.4-1.5c-0.2-0.1-0.3-0.1-0.5,0
			c-3.7,3.4-7.3,6.8-11,10.3c0,0-0.1,0.1-0.2,0.2c0.2,0,0.3,0,0.5,0c3.5,0,14.9,0,18.4,0 M31.6,47.8 M32.7,48.6c-4.2,0-16,0-20.2,0
			c-0.8,0-1.1-0.2-1.1-1c0-6.6,0-13.3,0-19.9c0-0.4,0.2-0.7,0.6-1c1.5-0.9,3-1.8,4.5-2.7c0.2-0.1,0.3-0.3,0.3-0.5c0-2.6,0-5.1,0-7.7
			c0-0.7,0.3-1,1-1c0.9,0,1.8,0,2.7,0c0-0.2,0-0.4,0-0.6c0-0.6,0-1.2,0-1.9c0-0.4,0.1-0.8,0.6-1c6.4,0,12.8,0,19.3,0
			c0.4,0.2,0.6,0.5,0.6,1c0,3.7,0,7.5,0,11.2c0,0.2,0.1,0.4,0.3,0.5c1.5,0.9,3,1.8,4.4,2.7c0.4,0.3,0.6,0.6,0.6,1
			c0,6.6,0,13.2,0,19.8c0,0.8-0.2,1-1.1,1C41,48.6,36.8,48.6,32.7,48.6 M18.4,16.3c0,0.1,0,0.1,0,0.2c0,4.5,0,9.1,0,13.6
			c0,0.2,0.1,0.3,0.3,0.4c3.3,2,6.6,4,9.9,6.1c0.2,0.1,0.4,0.1,0.6,0c2-1.3,4.1-2.5,6.1-3.7c0.3-0.2,0.3-0.3,0.3-0.6
			c0-5.2,0-10.4,0-15.6c0-0.1,0-0.3,0-0.4C29.8,16.3,24.1,16.3,18.4,16.3z M13,45.9c3.7-3.4,7.4-6.9,11.1-10.3
			c-3.7-2.3-7.4-4.5-11.1-6.8C13,34.6,13,40.3,13,45.9z M33.6,35.6c3.7,3.4,7.4,6.9,11,10.3c0-5.6,0-11.3,0-17
			C40.9,31.1,37.2,33.4,33.6,35.6z M37.2,31.7c0.7-0.4,1.3-0.8,1.9-1.1c0.3-0.1,0.3-0.3,0.3-0.6c0-5.6,0-11.2,0-16.8
			c0-0.1,0-0.3,0-0.4c-5.8,0-11.5,0-17.2,0c0,0.7,0,1.3,0,2c0.2,0,0.3,0,0.5,0c4.5,0,9,0,13.4,0c0.9,0,1.1,0.2,1.1,1
			c0,5.1,0,10.3,0,15.4C37.2,31.3,37.2,31.5,37.2,31.7z M41,25.6c0,1.3,0,2.5,0,3.8c1-0.6,2-1.3,3.1-1.9C43,26.8,42,26.2,41,25.6z
			 M13.7,27.5c1,0.6,2.1,1.3,3.1,1.9c0-1.3,0-2.5,0-3.8c-1,0.6-1.9,1.2-2.9,1.8C13.8,27.4,13.8,27.4,13.7,27.5z"/>
		<path class="st4" d="M26.1,31.9c-0.6-0.3-1.2-0.4-1.7-0.7c-0.5-0.2-0.6-0.7-0.4-1.1c0.2-0.4,0.7-0.4,1.2-0.2
			c0.2,0.1,0.4,0.2,0.6,0.3c0.1,0,0.2,0.1,0.4,0.1c0-1,0-2,0-2.9c0-0.1-0.2-0.2-0.3-0.3c-0.7-0.3-1.3-0.7-1.6-1.5
			c-0.4-1.2,0.2-2.9,1.9-3.2c0-0.1,0-0.3,0-0.4c0.1-0.4,0.4-0.6,0.8-0.6c0.4,0,0.8,0.3,0.7,0.7c0,0.3,0.1,0.4,0.4,0.5
			c0.4,0.2,0.9,0.4,1.3,0.6c0.4,0.3,0.5,0.7,0.2,1c-0.3,0.4-0.7,0.4-1.1,0.1c-0.2-0.1-0.5-0.3-0.8-0.4c0,0.8,0,1.5,0,2.2
			c0,0.1,0.1,0.1,0.2,0.2c0,0,0.1,0,0.2,0.1c1.3,0.5,2,1.3,2,2.5c0,1.2-0.8,2.3-2,2.7c-0.2,0.1-0.3,0.2-0.3,0.4
			c0,0.6-0.3,0.9-0.8,0.9c-0.5,0-0.8-0.3-0.8-0.9C26.1,32,26.1,31.9,26.1,31.9z M27.7,30.1c0.6-0.4,0.8-0.8,0.8-1.4
			c0-0.4-0.3-0.7-0.8-0.9C27.7,28.6,27.7,29.3,27.7,30.1z M26.1,23.9c-0.6,0.6-0.6,1.4,0,1.6C26.1,25,26.1,24.5,26.1,23.9z"/>
	</g>
	<g>
		<path class="st7" d="M29.2,15c3.9,0,7.1,3.2,7.1,7.1c0,3.9-3.2,7.1-7.1,7.1c-3.9,0-7.1-3.2-7.1-7.1C22.1,18.2,25.3,15,29.2,15z
			 M24.6,25.2c0.4-0.3,0.8-0.6,1.1-0.9c0.4-0.3,0.8-0.5,1.2-0.8c-0.6-0.8-0.6-1.7-0.5-2.6c0.2-1.3,1.4-2.3,2.7-2.3
			c1.3,0,2.5,1,2.7,2.3c0.1,0.9,0.1,1.8-0.5,2.7c0.9,0.4,1.7,1.1,2.3,1.9c1.5-2,1.6-5.2-0.7-7.3c-2.2-2-5.5-2-7.7,0.1
			C23.1,20.3,23.2,23.5,24.6,25.2z M25.8,26.5c2.1,1.6,4.9,1.4,6.7,0c-0.8-1.2-1.9-1.9-3.3-1.9C27.8,24.6,26.6,25.3,25.8,26.5z
			 M30.4,21.6C30.4,21.6,30.4,21.6,30.4,21.6c0-0.1,0-0.2,0-0.3c0-0.6-0.5-1.1-1.1-1.2c-0.6-0.1-1.2,0.3-1.3,1
			c-0.1,0.3-0.1,0.7,0,1.1c0.1,0.6,0.6,0.9,1.2,0.9c0.6,0,1.1-0.4,1.2-1C30.4,21.9,30.4,21.7,30.4,21.6z"/>
		<path class="st8" d="M27.9,33.3c-1.7,0-3.5,0-5.2,0c-0.1,0-0.3,0-0.4,0c-0.4-0.1-0.7-0.4-0.7-0.8c0-0.4,0.3-0.7,0.7-0.8
			c0.1,0,0.3,0,0.4,0c3.5,0,6.9,0,10.4,0c0,0,0.1,0,0.1,0c0.6,0,1,0.3,1,0.8c0,0.5-0.4,0.8-1,0.8C31.4,33.3,29.6,33.3,27.9,33.3z"/>
		<path class="st8" d="M27.9,37.6c-1.7,0-3.5,0-5.2,0c-0.1,0-0.3,0-0.4,0c-0.4-0.1-0.7-0.4-0.7-0.8c0-0.4,0.3-0.7,0.7-0.8
			c0.1,0,0.3,0,0.4,0c3.5,0,6.9,0,10.4,0c0,0,0.1,0,0.1,0c0.6,0,1,0.3,1,0.8c0,0.5-0.4,0.8-1,0.8C31.4,37.6,29.6,37.6,27.9,37.6z"/>
		<path class="st8" d="M27.9,40.4c1.7,0,3.5,0,5.2,0c0.1,0,0.3,0,0.4,0c0.4,0.1,0.6,0.4,0.6,0.7c0,0.4-0.3,0.7-0.6,0.7
			c-0.1,0-0.3,0-0.4,0c-3.5,0-7,0-10.4,0c-0.2,0-0.3,0-0.5,0c-0.3-0.1-0.6-0.4-0.6-0.7c0-0.3,0.2-0.6,0.6-0.7c0.1,0,0.3,0,0.5,0
			C24.4,40.4,26.1,40.4,27.9,40.4z"/>
		<path class="st8" d="M19.1,32.5c0.3,0,0.5,0.2,0.5,0.5c0,0.3-0.2,0.5-0.5,0.6c-0.3,0-0.5-0.2-0.6-0.5
			C18.5,32.8,18.8,32.5,19.1,32.5z"/>
		<path class="st8" d="M19.1,37.6c-0.3,0-0.6-0.3-0.6-0.6c0-0.3,0.3-0.6,0.6-0.6c0.3,0,0.6,0.3,0.6,0.6
			C19.7,37.3,19.4,37.6,19.1,37.6z"/>
		<path class="st8" d="M19.8,41.1c0,0.4-0.3,0.8-0.8,0.8c-0.4,0-0.8-0.4-0.8-0.8c0-0.4,0.4-0.8,0.8-0.8
			C19.5,40.4,19.8,40.7,19.8,41.1z"/>
		<path class="st9" d="M36.6,39.7l2.3,2.5l5.2-6.3c0.2-0.3,0.6-0.3,0.9-0.1l0,0c0.3,0.3,0.4,0.8,0.1,1.1l-6.1,7.6l-3.4-3.5
			c-0.3-0.3-0.3-0.8-0.1-1.1l0.1-0.1C35.9,39.4,36.3,39.4,36.6,39.7z"/>
		<path class="st10" d="M44,40.5c0,2.6,0,6,0,7c0,0.8-0.3,1-1,1c-9.2,0-18.4,0-27.6,0c-0.8,0-1.1-0.3-1.1-1c0-11.5,0-22.9,0-34.4
			c0-0.8,0.3-1.1,1.1-1.1c9.2,0,18.4,0,27.5,0c0.8,0,1.1,0.3,1.1,1.1c0,2.1,0,15.4,0,21.6"/>
	</g>
	<g class="st0">
		<path class="st4" d="M45.1,18.9c0,0.3,0,0.7,0,1c-0.3,0.7-0.7,0.9-1.3,0.8c-1.5,0-2.9,0-4.4,0c-0.1,0-0.2,0-0.4,0
			c0,0.2,0,0.3,0,0.4c0,2.2,0,4.5,0,6.7c0,0.4,0.1,0.5,0.4,0.7c2.7,1.3,4.5,3.5,5.3,6.7c0.2,0.7,0.3,1.4,0.4,2c0,0.5,0,1.1,0,1.6
			c0,0.1,0,0.3-0.1,0.4c-0.1,0.7-0.2,1.4-0.4,2.1c-1.1,3.7-3.3,6-6.6,7c-0.5,0.1-1,0.2-1.5,0.3c-7.7,0-15.4,0-23.2,0
			c-0.6-0.3-0.8-0.8-0.8-1.5c0-9.1,0-18.3,0-27.4c0-0.7,0-1.3,0.2-2c0.7-3.8,3.5-6.4,6.9-6.5c6.1,0,12.2,0,18.3,0
			c3.1,0,5.6,2.1,6.7,5.4C44.8,17.5,44.9,18.2,45.1,18.9z M30.2,46.4C30.2,46.4,30.2,46.4,30.2,46.4c0-0.1-0.1-0.2-0.2-0.3
			c-1.1-1.1-2-2.5-2.5-4.1c-0.1-0.3-0.2-0.3-0.4-0.3c-2.1,0-4.3,0-6.4,0c-0.3,0-0.6,0-0.9,0c-0.7,0-1.2-0.8-0.9-1.5
			c0.2-0.5,0.5-0.7,1.1-0.7c2.2,0,4.4,0,6.6,0c0.1,0,0.2,0,0.4,0c-0.1-1.6,0-3.2,0.5-4.7c-0.2,0-0.3,0-0.4,0c-2.3,0-4.6,0-7,0
			c-0.2,0-0.4,0-0.5-0.1c-0.5-0.2-0.8-0.8-0.7-1.4c0.2-0.5,0.5-0.8,1.1-0.8c2.7,0,5.4,0,8.1,0c0.3,0,0.4-0.1,0.6-0.3
			c1.7-2.6,3.9-4,6.6-4.3c0.6-0.1,1.1,0,1.7,0c0-4.7,0-9.4,0-14.1c-0.1,0-0.2,0-0.3,0c-5.6,0-11.2,0-16.8,0c-0.4,0-0.9,0-1.3,0.2
			c-2.4,0.7-3.9,3-3.9,5.9c0,8.7,0,17.5,0,26.2c0,0.1,0,0.3,0,0.4C19.8,46.4,25,46.4,30.2,46.4z M43.1,38.2c0-4.5-3.2-8.2-7.1-8.2
			c-3.9,0-7.1,3.7-7.1,8.2c0,4.5,3.2,8.2,7.1,8.2C39.9,46.4,43.1,42.7,43.1,38.2z M43,18.4c-0.4-2.4-2.3-4.3-4-4.5c0,1.5,0,3,0,4.5
			C40.3,18.4,41.6,18.4,43,18.4z"/>
		<path class="st4" d="M26,27.7c-2,0-3.9,0-5.9,0c-0.6,0-1-0.3-1.1-0.8c-0.2-0.6,0.1-1.3,0.7-1.4c0.1,0,0.2-0.1,0.4-0.1
			c4,0,8,0,12,0c0.6,0,1,0.3,1.1,0.9c0.1,0.6-0.2,1.2-0.8,1.3c-0.2,0-0.3,0-0.5,0C29.9,27.7,28,27.7,26,27.7z"/>
		<path class="st4" d="M25.8,20.7c-2,0-3.9,0-5.9,0c-0.6,0-0.9-0.2-1.1-0.7c-0.2-0.7,0.2-1.4,0.8-1.5c0.1,0,0.2,0,0.3,0
			c3.9,0,7.9,0,11.8,0c0.6,0,1,0.3,1.1,0.9c0.1,0.6-0.3,1.2-0.8,1.3c-0.2,0-0.3,0-0.5,0C29.7,20.7,27.7,20.7,25.8,20.7z"/>
		<path class="st11" d="M37.2,38.6c0.3,0,0.6,0,0.9,0c0.7,0,1.1,0.5,1.1,1.1c0,0.7-0.4,1.1-1.1,1.2c-0.6,0-1.2,0-1.8,0
			c-0.7,0-1.1-0.4-1.1-1.2c0-0.7,0-1.5,0-2.2c0-0.7,0.4-1.2,1-1.2c0.6,0,1,0.5,1,1.2C37.2,37.9,37.2,38.2,37.2,38.6z"/>
	</g>
	<g class="st0">
		<path class="st12" d="M15.3,45.9C15.3,45.9,15.3,45.9,15.3,45.9c-1,0-1.9,0-2.8,0c-0.6,0-0.8-0.2-0.8-0.8c0-9.8,0-19.7,0-29.5
			c0-2.4,1.8-4.3,4.2-4.3c7.9,0,15.8,0,23.7,0c2.2,0,3.9,1.5,4.2,3.7c0.3,1.9-1,3.9-2.9,4.5c-0.2,0.1-0.4,0.1-0.6,0.2c0,0,0,0,0,0
			v5.7c0,0,0,0,0,0c0.1-0.1,0.2-0.2,0.3-0.3c1.1-1.1,2.3-2.3,3.4-3.4c1.5-1.4,3.9-0.8,4.5,1.1c0.3,0.8,0.1,1.6-0.3,2.3
			c-0.1,0.1-0.1,0.3-0.2,0.5c-0.2,2.5-1.2,4.6-3,6.4c-0.8,0.7-1.5,1.5-2.2,2.2v0c-0.1,0.2-0.4,0.2-0.5,0L42,33.8
			c-0.2-0.2-0.2-0.4,0-0.6l0,0c1.1-1.1,2.1-2.1,3.2-3.3c0.7-0.8,1.2-1.8,1.5-2.9c0-0.1,0-0.1,0-0.2c0,0,0-0.1,0-0.1
			c-0.1,0.1-0.2,0.2-0.3,0.3c-1.9,1.9-3.8,3.8-5.8,5.8c-0.2,0.2-0.3,0.4-0.3,0.7c0,4.7,0,9.3,0,14c0,0.7-0.2,0.9-0.9,0.9
			c-7.7,0-15.5,0-23.2,0c-0.7,0-0.9-0.2-0.9-0.9C15.3,46.9,15.3,46.4,15.3,45.9z M26.3,42.2l1.2-1.1c0,0,0,0,0,0
			c-0.5-0.4-0.4-0.7-0.2-1.1c0.5-1,1-2,1.5-3.1c0.1-0.2,0.3-0.4,0.5-0.6c1.1-1.1,2.1-2.1,3.2-3.2c0.1-0.1,0.2-0.2,0.3-0.3
			c0,0,0,0,0,0l-14,0c0,0,0,0,0,0v-1.2c0,0,0,0,0,0h0.5c4.8,0,9.6,0,14.4,0c0.1,0,0.3,0,0.4-0.1c0.4-0.3,0.7-0.7,1.2-1.1
			c0,0,0,0,0,0l-16.4,0c0,0,0,0,0,0v-1.2c0,0,0,0,0,0h0.5c5.6,0,11.2,0,16.8,0c0.3,0,0.4-0.1,0.6-0.2c0.7-0.7,1.4-1.4,2.2-2.2
			c0.1-0.1,0.2-0.4,0.2-0.5c0-2.1,0-4.1,0-6.2v-0.3c0,0,0,0,0,0H16.5c0,0,0,0,0,0v27.4c0,0,0,0,0,0h22.6c0,0,0,0,0,0V34.3
			c-0.1,0-0.1,0-0.1,0c-0.1,0.1-0.1,0.2-0.2,0.3c-1.6,1.7-3.3,3.3-4.9,5c-0.6,0.6-1.3,1.1-2.1,1.5c-0.7,0.3-1.4,0.7-2.1,1
			c-0.4,0.2-0.8,0.4-1.2-0.2c0,0,0,0,0,0c-0.2,0.2-0.5,0.6-0.7,0.7c-0.3,0.3-0.3,0.4-0.7,0.5c-0.1,0.1-0.6,0.1-0.8,0
			c-0.1-0.1-0.1-0.2-0.1-0.4c0-0.1,0-0.2,0.1-0.3C26.2,42.4,26.3,42.3,26.3,42.2z M18.9,18.4C18.9,18.4,18.9,18.4,18.9,18.4l0.3,0
			c6.8,0,13.7,0,20.5,0c0.3,0,0.6,0,0.9-0.1c1.4-0.4,2.3-1.8,2.1-3.2c-0.2-1.5-1.4-2.6-3-2.6c-6.9,0-13.7,0-20.6,0
			c-0.1,0-0.2,0-0.3,0c0,0,0,0,0,0C20.5,14.8,20.5,15.9,18.9,18.4z M18.8,14.9C18.8,14.9,18.8,14.9,18.8,14.9
			c-0.1-0.7-0.5-1.3-1-1.7c-1-0.7-2-0.9-3.1-0.4c-1.1,0.6-1.7,1.5-1.7,2.8c0,9.6,0,19.2,0,28.7c0,0.1,0,0.2,0,0.3c0,0,0,0,0,0h2.4
			c0,0,0,0,0,0c0-1.7,0-3.5,0-5.2c0-7.5,0-15,0-22.5c0-1.4,0.7-2.1,2.1-2.1C17.8,14.9,18.3,14.9,18.8,14.9z M32.6,39
			c1.3-1.3,2.6-2.6,3.8-3.8c0,0,0,0,0,0c-0.7-0.7-1.4-1.4-2-2c0,0,0,0,0,0c-1.3,1.3-2.6,2.6-3.8,3.8c0,0,0,0,0,0
			C31.2,37.6,31.9,38.3,32.6,39C32.6,39,32.6,39,32.6,39z M42.7,24.8c-2.5,2.5-5,5-7.4,7.4c0,0,0,0,0,0c0.1,0.2,0.3,0.4,0.5,0.5
			c0,0,0,0,0,0c2.5-2.5,5-5,7.5-7.5c0,0,0,0,0,0C43.1,25.1,42.9,24.9,42.7,24.8C42.7,24.8,42.7,24.8,42.7,24.8z M44.2,26.2
			c-2.5,2.5-5,5-7.5,7.5c0,0,0,0,0,0c0.2,0.2,0.4,0.4,0.5,0.5c0,0,0,0,0,0c2.5-2.5,5-5,7.5-7.5c0,0,0,0,0,0
			C44.6,26.6,44.4,26.4,44.2,26.2C44.2,26.2,44.2,26.2,44.2,26.2z M45.7,25.9C45.7,25.9,45.7,25.9,45.7,25.9
			c0.4-0.4,0.8-0.8,1.2-1.2c0.1-0.1,0.2-0.2,0.2-0.3c0.4-0.6,0.4-1.4-0.1-1.9c-0.5-0.5-1.3-0.7-1.9-0.3c-0.6,0.5-1.1,1-1.6,1.5
			c0,0,0,0,0,0C44.3,24.5,45,25.2,45.7,25.9z M29.7,38C29.7,38,29.7,38,29.7,38c-0.3,0.6-0.6,1.2-0.9,1.8c-0.3,0.7-0.3,0.7,0.2,1.1
			c0,0,0,0,0.1,0c0.8-0.4,1.6-0.8,2.4-1.2c0,0,0,0,0,0C30.9,39.2,30.3,38.6,29.7,38z M16.5,18.4c1.1-0.1,2.1-1.2,2.3-2.3
			c0,0,0,0,0,0c-0.6,0-1.1,0-1.7,0c-0.3,0-0.6,0.3-0.6,0.6C16.5,17.2,16.5,17.8,16.5,18.4C16.5,18.4,16.5,18.4,16.5,18.4z"/>
		<path class="st12" d="M18.9,23.2c0-0.4,0-0.8,0-1.1c5.9,0,11.9,0,17.8,0c0,0.4,0,0.7,0,1.1C30.8,23.2,24.8,23.2,18.9,23.2z"/>
		<path class="st12" d="M18.9,25.6c0-0.4,0-0.8,0-1.1c5.9,0,11.9,0,17.8,0c0,0.4,0,0.7,0,1.1C30.8,25.6,24.8,25.6,18.9,25.6z"/>
		<path class="st12" d="M18.9,28c0-0.4,0-0.8,0-1.1c6,0,11.9,0,17.8,0c0,0.4,0,0.8,0,1.1C30.8,28,24.8,28,18.9,28z"/>
		<path class="st12" d="M18.9,44.7c0-0.4,0-0.8,0-1.1c5.9,0,11.9,0,17.8,0c0,0.4,0,0.7,0,1.1C30.8,44.7,24.8,44.7,18.9,44.7z"/>
		<path class="st12" d="M18.9,42.3c0-0.4,0-0.8,0-1.1c2.2,0,4.3,0,6.5,0c0,0.4,0,0.8,0,1.1C23.2,42.3,21.1,42.3,18.9,42.3z"/>
	</g>
	<g class="st0">
		<path class="st4" d="M16.1,37.5c0,3,0,6,0,9c0,0.2,0,0.3,0,0.5c8.5,0,17,0,25.5,0c0-11.4,0-22.7,0-34.1c-6.2,0-12.3,0-18.6,0
			c0,0.1,0,0.3,0,0.4c0,1.8,0,3.6,0,5.4c0,0.7-0.3,1-1,1c-1.8,0-3.7,0-5.5,0c-0.1,0-0.3,0-0.5,0c0,0.2,0,0.3,0,0.5
			c0,3.2,0,6.4,0,9.7L16.1,37.5z M14.5,29.9c0-3.6,0-7.1,0-10.7c0-0.4,0.1-0.7,0.4-1c2.2-2.1,4.4-4.3,6.5-6.5c0.3-0.3,0.6-0.4,1-0.4
			c6.5,0,13.1,0,19.6,0c0.5,0,0.8,0.1,1.1,0.6c0,12.1,0,24.1,0,36.2c-0.2,0.4-0.6,0.6-1.1,0.6c-8.8,0-17.7,0-26.5,0
			c-0.9,0-1.1-0.2-1.1-1.1c0-3.3,0-6.7,0-10L14.5,29.9z M17.3,18.1c1.4,0,2.8,0,4.1,0c0-1.4,0-2.7,0-4.1
			C20,15.4,18.7,16.7,17.3,18.1z"/>
		<path class="st4" d="M25.6,41.7c0,1.5-1.2,2.7-2.7,2.7c-1.5,0-2.7-1.2-2.7-2.7c0-1.5,1.2-2.7,2.7-2.7C24.4,39,25.6,40.2,25.6,41.7
			z M24.4,41.7c0-0.8-0.6-1.5-1.5-1.5c-0.8,0-1.5,0.6-1.5,1.4c0,0.8,0.7,1.5,1.5,1.5C23.7,43.1,24.4,42.5,24.4,41.7z"/>
		<path class="st4" d="M26.4,23.5c1.9,0,3.8,0,5.8,0c0.4,0,0.6,0.1,0.8,0.4c0.3,0.5,0,1-0.6,1.1c-0.1,0-0.2,0-0.3,0
			c-3.8,0-7.6,0-11.5,0c-0.5,0-0.8-0.2-0.9-0.6c-0.1-0.5,0.3-0.9,0.9-0.9c1.9,0,3.7,0,5.6,0C26.2,23.5,26.3,23.5,26.4,23.5z"/>
		<path class="st4" d="M33.7,40.7c-0.6,0-1.2-0.2-1.6-0.6c-0.5-0.5-0.9-0.4-1.4,0.1c-0.2,0.2-0.4,0.4-0.6,0.6c-0.3,0.2-0.7,0.2-1,0
			c-0.3-0.2-0.4-0.6-0.2-0.9c0.5-0.7,1.1-1.4,2-1.5c0.8-0.1,1.5,0,2.1,0.5c0.5,0.5,0.9,0.4,1.4-0.1c0.8-0.8,1.5-1.5,2.3-2.3
			c0.3-0.3,0.6-0.4,1-0.2c0.3,0.2,0.5,0.5,0.4,0.8c0,0.2-0.2,0.4-0.3,0.5c-0.8,0.8-1.6,1.6-2.4,2.3C34.9,40.5,34.3,40.7,33.7,40.7z"
			/>
		<path class="st4" d="M24,27.8c1.1,0,2.3,0,3.4,0c0.6,0,0.9,0.3,0.9,0.8c0,0.5-0.4,0.8-0.9,0.8c-2.2,0-4.5,0-6.7,0
			c-0.6,0-0.9-0.3-0.9-0.8c0-0.5,0.3-0.8,1-0.8C21.8,27.8,22.9,27.8,24,27.8z"/>
		<path class="st4" d="M24,33.7c-1.1,0-2.3,0-3.4,0c-0.6,0-0.9-0.3-0.9-0.8c0-0.5,0.3-0.8,0.9-0.8c0,0,0,0,0,0c2.2,0,4.4,0,6.7,0
			c0.6,0,1,0.3,1,0.8c0,0.5-0.4,0.8-1,0.8C26.2,33.7,25.1,33.7,24,33.7z"/>
		<path class="st4" d="M34.1,27.8c1,0,2,0,2.9,0c0.6,0,0.9,0.3,0.9,0.8c0,0.5-0.3,0.8-0.9,0.8c-2,0-3.9,0-5.9,0
			c-0.6,0-0.9-0.3-0.9-0.8c0-0.5,0.3-0.8,0.9-0.8C32.2,27.8,33.2,27.8,34.1,27.8z"/>
		<path class="st4" d="M32.7,44.1c-1.2,0-2.7,0-3.9,0c-0.8,0-1.1-0.3-1.1-0.8c0-0.5,0.2-0.8,1-0.8c2.4,0,5.6,0,8,0
			c0.8,0,0.9,0.3,0.9,0.8c0,0.5-0.1,0.8-0.9,0.8C35.6,44.1,33.9,44.1,32.7,44.1z"/>
		<path class="st4" d="M36.5,25c-0.2,0-0.5,0-0.7,0c-0.5,0-0.8-0.4-0.8-0.8c0-0.4,0.3-0.7,0.8-0.8c0.5,0,1,0,1.5,0
			c0.5,0,0.8,0.3,0.8,0.8c0,0.4-0.3,0.8-0.8,0.8C37,25,36.8,25,36.5,25z"/>
	</g>
	<g class="st0">
		<polygon class="st13" points="16,29.2 41.7,29.2 45.6,34.7 43.5,34.7 31.1,34.7 28.9,30.5 26.7,34.7 12.1,34.7 		"/>
		<polyline class="st13" points="14,34.7 14,48.2 43.3,48.2 43.5,34.7 		"/>
		<path class="st13" d="M25,18.8l1.6,1.8c0.5,0.6,1.5,0.6,2,0l4.1-4.7"/>
		<circle class="st13" cx="28.9" cy="19" r="6.5"/>
		<line class="st14" x1="28.9" y1="32" x2="28.9" y2="36.9"/>
		<line class="st14" x1="28.9" y1="43.9" x2="28.9" y2="48.2"/>
		<line class="st14" x1="17.9" y1="43.9" x2="23.4" y2="43.9"/>
		<line class="st14" x1="28.9" y1="39.8" x2="28.9" y2="41.2"/>
		<polygon class="st15" points="17.9,15.8 14,13.7 14.2,13.4 18,15.6 		"/>
		<line class="st14" x1="14" y1="19" x2="17.9" y2="19"/>
		<line class="st14" x1="14" y1="24.6" x2="17.9" y2="21.9"/>
		<line class="st14" x1="39.8" y1="15.8" x2="43.5" y2="13.8"/>
		<line class="st14" x1="39.7" y1="19" x2="43.5" y2="19"/>
		<line class="st14" x1="39.7" y1="22.4" x2="43.5" y2="24.3"/>
	</g>
	<g class="st0">
		<path class="st4" d="M29,48.7c-4.6,0-9.1,0-13.7,0c-0.7,0-0.9-0.2-0.9-0.9c0-6.2,0-12.4,0-18.6c0-0.7,0.2-0.9,0.9-0.9
			c0.4,0,0.9,0,1.3,0c0.3,0,0.4-0.1,0.4-0.4c0-1.1,0-2.2,0-3.3c0-0.5,0.2-0.7,0.7-0.7c4-0.1,7.6,1.1,10.8,3.7
			c0.2,0.2,0.4,0.5,0.6,0.5c0.2,0,0.4-0.3,0.6-0.5c3.1-2.6,6.7-3.8,10.8-3.7c0.5,0,0.7,0.3,0.7,0.7c0,1.1,0,2.2,0,3.3
			c0,0.3,0,0.4,0.4,0.4c0.4,0,0.9,0,1.3,0c0.7,0,0.9,0.2,0.9,0.9c0,5.6,0,11.2,0,16.8c0,0.6,0,1.2,0,1.8c0,0.6-0.2,0.8-0.8,0.8
			C38.2,48.7,33.6,48.7,29,48.7z"/>
		<path class="st4" d="M37.3,17.6c0,0.4,0,0.8,0,1.2c0,0.4-0.3,0.7-0.7,0.7c-0.7-0.1-0.9,0.2-1.1,0.8c-0.2,0.6-0.3,0.9,0.3,1.4
			c0.4,0.3,0.3,0.6,0,1c-0.6,0.6-1.1,1.2-1.7,1.7c-0.3,0.3-0.7,0.4-1,0c-0.4-0.5-0.7-0.5-1.3-0.3c-0.6,0.2-0.9,0.5-0.8,1.2
			c0.1,0.4-0.2,0.7-0.7,0.7c-0.8,0-1.6,0-2.5,0c-0.4,0-0.7-0.3-0.7-0.7c0.1-0.6-0.1-0.9-0.7-1.1c-0.6-0.2-1-0.3-1.4,0.3
			c-0.3,0.4-0.6,0.3-1,0c-0.6-0.6-1.2-1.1-1.7-1.7c-0.3-0.3-0.4-0.7,0-1c0.6-0.4,0.5-0.8,0.3-1.4c-0.2-0.6-0.5-0.8-1.1-0.7
			c-0.5,0-0.7-0.2-0.7-0.7c0-0.8,0-1.6,0-2.4c0-0.5,0.3-0.8,0.7-0.7c0.6,0.1,0.9-0.2,1.1-0.7c0.3-0.6,0.3-1-0.3-1.4
			c-0.4-0.3-0.3-0.6,0-1c0.6-0.6,1.1-1.1,1.7-1.7c0.3-0.3,0.7-0.3,1,0c0.4,0.5,0.8,0.5,1.3,0.3c0.6-0.2,0.9-0.5,0.8-1.1
			c-0.1-0.4,0.2-0.7,0.7-0.7c0.8,0,1.6,0,2.4,0c0.5,0,0.7,0.3,0.7,0.7c-0.1,0.6,0.1,0.9,0.7,1.1c0.6,0.2,1,0.3,1.4-0.3
			c0.3-0.3,0.6-0.3,0.9,0c0.6,0.6,1.2,1.2,1.7,1.7c0.3,0.3,0.3,0.7,0,1c-0.5,0.4-0.5,0.7-0.3,1.3c0.3,0.6,0.5,0.9,1.2,0.8
			c0.4-0.1,0.7,0.2,0.7,0.7C37.3,16.8,37.3,17.2,37.3,17.6z"/>
		<path class="st16" d="M29.7,43.5c0-0.2,0-0.3,0-0.4c0-4.4,0-8.9,0-13.3c0-0.3,0.1-0.4,0.3-0.6c2.7-2.4,5.9-3.7,9.5-3.8
			c0.3,0,0.4,0,0.4,0.4c0,4.6,0,9.3,0,13.9c0,0.2,0,0.4-0.3,0.4c-3.7,0.1-6.9,1.2-9.8,3.5C29.8,43.4,29.8,43.4,29.7,43.5z"/>
		<path class="st16" d="M28.4,43.5c-2.1-1.7-4.5-2.8-7.1-3.4c-0.9-0.2-1.8-0.3-2.8-0.3c-0.3,0-0.3-0.1-0.3-0.3c0-4.7,0-9.3,0-14
			c0-0.2,0-0.3,0.3-0.3c3.7,0.1,6.9,1.4,9.7,3.9c0.1,0.1,0.2,0.3,0.2,0.4c0,4.6,0,9.1,0,13.7C28.4,43.3,28.4,43.4,28.4,43.5z"/>
		<path class="st16" d="M24,44.9c-2.7,0-5.4,0-8.1,0c-0.3,0-0.3-0.2-0.3-0.3c0-3.4,0-6.8,0-10.2c0-1.5,0-2.9,0-4.4
			c0-0.3,0.1-0.3,0.3-0.3c0.9,0,0.9,0,0.9,0.9c0,3.2,0,6.4,0,9.7c0,0.4,0.1,0.7,0.5,0.9c0.2,0,0.1,0.2,0.1,0.3c0,0.5,0,0.9,0,1.4
			c0,0.7,0.2,0.9,0.9,0.9c1.9,0,3.7,0.4,5.4,1.1C23.9,44.8,24,44.8,24,44.9C24.1,44.9,24.1,44.9,24,44.9z"/>
		<path class="st16" d="M34,44.9c1.8-0.8,3.6-1.2,5.6-1.3c0.7,0,0.9-0.2,0.9-0.9c0-0.3,0-0.7,0-1c0-0.3-0.1-0.6,0.4-0.8
			c0.3-0.1,0.3-0.4,0.3-0.7c0-3.4,0-6.7,0-10.1c0-0.5,0-0.5,0.5-0.5c0.8,0,0.8,0,0.8,0.8c0,4.7,0,9.4,0,14.1c0,0.3-0.1,0.4-0.4,0.4
			c-2.5,0-5.1,0-7.6,0C34.3,44.9,34.1,44.9,34,44.9z"/>
		<path class="st16" d="M28,47.5c-3.9,0-7.7,0-11.6,0c-0.7,0-0.7,0-0.7-0.7c0-0.6,0-0.6,0.5-0.6c3.3,0,6.6,0,9.8,0
			c0.3,0,0.6,0.1,0.8,0.3C27.2,46.8,27.6,47.1,28,47.5C28,47.4,28,47.5,28,47.5z"/>
		<path class="st16" d="M30,47.5c0.5-0.5,1-0.8,1.4-1.2c0.1-0.1,0.3-0.1,0.4-0.1c3.4,0,6.8,0,10.2,0c0.3,0,0.3,0.1,0.3,0.3
			c0,1,0,1-1,1c-3.6,0-7.3,0-10.9,0C30.4,47.5,30.2,47.5,30,47.5z"/>
		<path class="st16" d="M28.4,46c-1.8-1.5-3.8-2.5-6-3.1c-1-0.3-2.1-0.4-3.2-0.5c-0.2,0-0.3-0.1-0.3-0.3c0-1,0-1,1-0.9
			c3.1,0.3,5.8,1.5,8.1,3.6C28.4,45.2,28.4,45.2,28.4,46z"/>
		<path class="st16" d="M29.7,46c-0.2-0.6,0.1-1,0.5-1.3c2.5-2.1,5.4-3.3,8.7-3.5c0.3,0,0.3,0.1,0.3,0.3c0,0.9,0,0.9-0.8,1
			c-3.1,0.3-5.9,1.4-8.3,3.3C30,45.8,29.8,45.9,29.7,46z"/>
		<path class="st16" d="M23.6,13.1c0.1-0.1,0.3-0.2,0.3-0.3c0.2-0.2,0.4-0.5,0.6-0.6c0.3-0.1,0.4,0.3,0.6,0.5
			c0.2,0.2,0.5,0.2,0.8,0.1c0.6-0.4,1.3-0.7,2-0.8c0.4-0.1,0.5-0.4,0.5-0.8c0-0.6,0-0.6,0.6-0.6c0.6,0,0.6,0,0.7,0.6
			c0,0.5,0.2,0.7,0.6,0.8c0.6,0.1,1.2,0.4,1.7,0.7c0.5,0.3,0.7,0.3,1.1-0.1c0.4-0.4,0.4-0.4,0.8,0c0,0,0,0,0,0
			c0.5,0.5,0.5,0.5,0,0.9c-0.3,0.3-0.3,0.6-0.1,1c0.3,0.6,0.6,1.1,0.7,1.8c0.1,0.5,0.3,0.7,0.8,0.7c0.6,0,0.6,0,0.6,0.6
			c0,0.7,0,0.7-0.7,0.7c-0.4,0-0.6,0.2-0.7,0.6c-0.2,0.7-0.4,1.3-0.8,1.9c-0.2,0.4-0.2,0.6,0.2,1c0.4,0.4,0.4,0.4,0,0.8
			c-0.5,0.5-0.5,0.5-1,0c-0.3-0.3-0.6-0.3-0.9-0.1c-0.6,0.4-1.2,0.6-1.9,0.8c-0.5,0.1-0.6,0.3-0.6,0.8c0,0.6,0,0.6-0.6,0.6
			c-0.7,0-0.7,0-0.7-0.7c0-0.4-0.2-0.7-0.6-0.8c-0.6-0.1-1.2-0.4-1.8-0.7c-0.5-0.3-0.7-0.3-1.1,0.1c-0.4,0.4-0.4,0.4-0.8,0
			c0,0,0,0,0,0c-0.5-0.5-0.5-0.5,0-0.9c0.3-0.3,0.3-0.6,0.1-1c-0.3-0.5-0.6-1.1-0.7-1.7c-0.1-0.6-0.3-0.7-0.9-0.7
			c-0.6,0-0.6,0-0.6-0.6c0-0.7,0-0.7,0.7-0.7c0.4,0,0.6-0.2,0.7-0.6c0.2-0.7,0.4-1.3,0.8-1.9c0.2-0.3,0.2-0.6-0.1-0.9
			C24,13.4,23.8,13.3,23.6,13.1z"/>
		<path class="st4" d="M24.6,17.6c0-2.4,2-4.4,4.4-4.5c2.5,0,4.5,2,4.5,4.4c0,2.5-2,4.5-4.4,4.5C26.6,22.1,24.6,20.1,24.6,17.6z"/>
		<path class="st16" d="M29.1,14.4c1.7,0,3.2,1.4,3.2,3.2c0,1.7-1.4,3.2-3.2,3.2c-1.7,0-3.2-1.5-3.2-3.2
			C25.9,15.8,27.3,14.4,29.1,14.4z"/>
	</g>
	<g class="st0">
		<circle class="st17" cx="28.6" cy="30.1" r="27"/>
		<ellipse class="st18" cx="47.6" cy="12.1" rx="7.6" ry="7.6"/>
		<path class="st6" d="M47.6,4.1c-4.4,0-8,3.6-8,8c0,4.4,3.6,8,8,8s8-3.6,8-8C55.6,7.7,52,4.1,47.6,4.1z M47.6,18.6
			c-3.6,0-6.5-2.9-6.5-6.5s2.9-6.5,6.5-6.5c3.6,0,6.5,2.9,6.5,6.5S51.2,18.6,47.6,18.6z"/>
		<path class="st6" d="M50.5,10.1c-0.3-0.3-0.7-0.3-1,0l-2.6,2.6l-1-1c-0.3-0.3-0.7-0.3-1,0c-0.3,0.3-0.3,0.7,0,1l1.5,1.5
			c0.3,0.3,0.7,0.3,1,0l3.1-3.1C50.8,10.8,50.8,10.4,50.5,10.1z"/>
	</g>
	<g>
		<circle class="st19" cx="28.6" cy="30" r="27"/>
		<ellipse class="st20" cx="47.7" cy="12.2" rx="7.6" ry="7.6"/>
		<path class="st21" d="M47.6,4c-4.4,0-8,3.6-8,8c0,4.4,3.6,8,8,8s8-3.6,8-8C55.6,7.6,52,4,47.6,4z M47.6,18.6
			C44,18.6,41,15.7,41,12s2.9-6.5,6.5-6.5c3.6,0,6.5,2.9,6.5,6.5S51.2,18.6,47.6,18.6z"/>
		<path class="st21" d="M45.9,14.8"/>
		<g>
			<path class="st21" d="M48.4,13.5c0-1.6,0-2.9,0-4.5c0-0.4-0.3-0.8-0.7-0.8c-0.4,0-0.7,0.3-0.7,0.8l0,4.5c0,0.3,0.2,0.7,0.7,0.7
				C48,14.2,48.3,14,48.4,13.5z"/>
			<ellipse class="st21" cx="47.7" cy="15.4" rx="0.7" ry="0.8"/>
		</g>
	</g>
</g>
</svg>
