<?xml version="1.0" encoding="UTF-8"?>
<svg xmlns="http://www.w3.org/2000/svg" xmlns:xlink="http://www.w3.org/1999/xlink" width="56pt" height="56pt" viewBox="0 0 56 56" version="1.1">
<g id="surface1">
<path style="fill:none;stroke-width:2;stroke-linecap:butt;stroke-linejoin:miter;stroke:rgb(47.058824%,47.058824%,47.058824%);stroke-opacity:1;stroke-miterlimit:10;" d="M 54.898438 28 C 54.898438 42.855469 42.855469 54.898438 28 54.898438 C 13.144531 54.898438 1.101562 42.855469 1.101562 28 C 1.101562 13.144531 13.144531 1.101562 28 1.101562 C 42.855469 1.101562 54.898438 13.144531 54.898438 28 Z M 54.898438 28 "/>
<path style=" stroke:none;fill-rule:nonzero;fill:rgb(47.058824%,47.058824%,47.058824%);fill-opacity:1;" d="M 15.199219 35.398438 C 15.199219 38.398438 15.199219 41.398438 15.199219 44.398438 C 15.199219 44.601562 15.199219 44.699219 15.199219 44.898438 C 23.699219 44.898438 32.199219 44.898438 40.699219 44.898438 C 40.699219 33.5 40.699219 22.199219 40.699219 10.800781 C 34.5 10.800781 28.398438 10.800781 22.101562 10.800781 C 22.101562 10.898438 22.101562 11.101562 22.101562 11.199219 C 22.101562 13 22.101562 14.800781 22.101562 16.601562 C 22.101562 17.300781 21.800781 17.601562 21.101562 17.601562 C 19.300781 17.601562 17.398438 17.601562 15.601562 17.601562 C 15.5 17.601562 15.300781 17.601562 15.101562 17.601562 C 15.101562 17.800781 15.101562 17.898438 15.101562 18.101562 C 15.101562 21.300781 15.101562 24.5 15.101562 27.800781 Z M 13.699219 27.800781 C 13.699219 24.199219 13.699219 20.699219 13.699219 17.101562 C 13.699219 16.699219 13.800781 16.398438 14.101562 16.101562 C 16.300781 14 18.5 11.800781 20.601562 9.601562 C 20.898438 9.300781 21.199219 9.199219 21.601562 9.199219 C 28.101562 9.199219 34.699219 9.199219 41.199219 9.199219 C 41.699219 9.199219 42 9.300781 42.300781 9.800781 C 42.300781 21.898438 42.300781 33.898438 42.300781 46 C 42.101562 46.398438 41.699219 46.601562 41.199219 46.601562 C 32.398438 46.601562 23.5 46.601562 14.699219 46.601562 C 13.800781 46.601562 13.601562 46.398438 13.601562 45.5 C 13.601562 42.199219 13.601562 38.800781 13.601562 35.5 Z M 16.5 16 C 17.898438 16 19.300781 16 20.601562 16 C 20.601562 14.601562 20.601562 13.300781 20.601562 11.898438 C 19.199219 13.300781 17.800781 14.699219 16.5 16 Z M 16.5 16 "/>
<path style=" stroke:none;fill-rule:nonzero;fill:rgb(47.058824%,47.058824%,47.058824%);fill-opacity:1;" d="M 24.800781 39.601562 C 24.800781 41.101562 23.601562 42.300781 22.101562 42.300781 C 20.601562 42.300781 19.398438 41.101562 19.398438 39.601562 C 19.398438 38.101562 20.601562 36.898438 22.101562 36.898438 C 23.601562 36.898438 24.800781 38.101562 24.800781 39.601562 Z M 23.5 39.601562 C 23.5 38.800781 22.898438 38.101562 22 38.101562 C 21.199219 38.101562 20.5 38.699219 20.5 39.5 C 20.5 40.300781 21.199219 41 22 41 C 22.898438 41.101562 23.5 40.398438 23.5 39.601562 Z M 23.5 39.601562 "/>
<path style=" stroke:none;fill-rule:nonzero;fill:rgb(47.058824%,47.058824%,47.058824%);fill-opacity:1;" d="M 25.5 21.398438 C 27.398438 21.398438 29.300781 21.398438 31.300781 21.398438 C 31.699219 21.398438 31.898438 21.5 32.101562 21.800781 C 32.398438 22.300781 32.101562 22.800781 31.5 22.898438 C 31.398438 22.898438 31.300781 22.898438 31.199219 22.898438 C 27.398438 22.898438 23.601562 22.898438 19.699219 22.898438 C 19.199219 22.898438 18.898438 22.699219 18.800781 22.300781 C 18.699219 21.800781 19.101562 21.398438 19.699219 21.398438 C 21.601562 21.398438 23.398438 21.398438 25.300781 21.398438 C 25.398438 21.398438 25.398438 21.398438 25.5 21.398438 Z M 25.5 21.398438 "/>
<path style=" stroke:none;fill-rule:nonzero;fill:rgb(47.058824%,47.058824%,47.058824%);fill-opacity:1;" d="M 32.800781 38.601562 C 32.199219 38.601562 31.601562 38.398438 31.199219 38 C 30.699219 37.5 30.300781 37.601562 29.800781 38.101562 C 29.601562 38.300781 29.398438 38.5 29.199219 38.699219 C 28.898438 38.898438 28.5 38.898438 28.199219 38.699219 C 27.898438 38.5 27.800781 38.101562 28 37.800781 C 28.5 37.101562 29.101562 36.398438 30 36.300781 C 30.800781 36.199219 31.5 36.300781 32.101562 36.800781 C 32.601562 37.300781 33 37.199219 33.5 36.699219 C 34.300781 35.898438 35 35.199219 35.800781 34.398438 C 36.101562 34.101562 36.398438 34 36.800781 34.199219 C 37.101562 34.398438 37.300781 34.699219 37.199219 35 C 37.199219 35.199219 37 35.398438 36.898438 35.5 C 36.101562 36.300781 35.300781 37.101562 34.5 37.800781 C 34 38.398438 33.398438 38.601562 32.800781 38.601562 Z M 32.800781 38.601562 "/>
<path style=" stroke:none;fill-rule:nonzero;fill:rgb(47.058824%,47.058824%,47.058824%);fill-opacity:1;" d="M 23.101562 25.699219 C 24.199219 25.699219 25.398438 25.699219 26.5 25.699219 C 27.101562 25.699219 27.398438 26 27.398438 26.5 C 27.398438 27 27 27.300781 26.5 27.300781 C 24.300781 27.300781 22 27.300781 19.800781 27.300781 C 19.199219 27.300781 18.898438 27 18.898438 26.5 C 18.898438 26 19.199219 25.699219 19.898438 25.699219 C 20.898438 25.699219 22 25.699219 23.101562 25.699219 Z M 23.101562 25.699219 "/>
<path style=" stroke:none;fill-rule:nonzero;fill:rgb(47.058824%,47.058824%,47.058824%);fill-opacity:1;" d="M 23.199219 31.699219 C 22.101562 31.699219 20.898438 31.699219 19.800781 31.699219 C 19.199219 31.699219 18.898438 31.398438 18.898438 30.898438 C 18.898438 30.398438 19.199219 30.101562 19.800781 30.101562 C 22 30.101562 24.199219 30.101562 26.5 30.101562 C 27.101562 30.101562 27.5 30.398438 27.5 30.898438 C 27.5 31.398438 27.101562 31.699219 26.5 31.699219 C 25.398438 31.699219 24.300781 31.699219 23.199219 31.699219 Z M 23.199219 31.699219 "/>
<path style=" stroke:none;fill-rule:nonzero;fill:rgb(47.058824%,47.058824%,47.058824%);fill-opacity:1;" d="M 33.300781 25.699219 C 34.300781 25.699219 35.300781 25.699219 36.199219 25.699219 C 36.800781 25.699219 37.101562 26 37.101562 26.5 C 37.101562 27 36.800781 27.300781 36.199219 27.300781 C 34.199219 27.300781 32.300781 27.300781 30.300781 27.300781 C 29.699219 27.300781 29.398438 27 29.398438 26.5 C 29.398438 26 29.699219 25.699219 30.300781 25.699219 C 31.300781 25.699219 32.300781 25.699219 33.300781 25.699219 Z M 33.300781 25.699219 "/>
<path style=" stroke:none;fill-rule:nonzero;fill:rgb(47.058824%,47.058824%,47.058824%);fill-opacity:1;" d="M 31.898438 42 C 30.699219 42 29.199219 42 28 42 C 27.199219 42 26.898438 41.699219 26.898438 41.199219 C 26.898438 40.699219 27.101562 40.398438 27.898438 40.398438 C 30.300781 40.398438 33.5 40.398438 35.898438 40.398438 C 36.699219 40.398438 36.800781 40.699219 36.800781 41.199219 C 36.800781 41.699219 36.699219 42 35.898438 42 C 34.699219 42.101562 33.101562 42 31.898438 42 Z M 31.898438 42 "/>
<path style=" stroke:none;fill-rule:nonzero;fill:rgb(47.058824%,47.058824%,47.058824%);fill-opacity:1;" d="M 35.699219 22.898438 C 35.5 22.898438 35.199219 22.898438 35 22.898438 C 34.5 22.898438 34.199219 22.5 34.199219 22.101562 C 34.199219 21.699219 34.5 21.398438 35 21.300781 C 35.5 21.300781 36 21.300781 36.5 21.300781 C 37 21.300781 37.300781 21.601562 37.300781 22.101562 C 37.300781 22.5 37 22.898438 36.5 22.898438 C 36.101562 23 35.898438 22.898438 35.699219 22.898438 Z M 35.699219 22.898438 "/>
</g>
</svg>
