<svg width="36" height="36" viewBox="0 0 36 36" fill="none" xmlns="http://www.w3.org/2000/svg">
<rect width="36" height="36" fill="#6F1DF4"/>
<path d="M16.75 15.75V8.25H19.25V15.75H26.75V18.25H19.25V25.75H16.75V18.25H9.25V15.75H16.75Z" fill="white"/>
</svg>
