<svg width="42" height="42" viewBox="0 0 42 42" fill="none" xmlns="http://www.w3.org/2000/svg">
<rect width="42" height="42" rx="6" fill="#E5E5E5" fill-opacity="0.62"/>
<path d="M9.75 11.5H32.25V13.75H9.75V11.5ZM9.75 19.375H32.25V21.625H9.75V19.375ZM9.75 27.25H32.25V29.5H9.75V27.25Z" fill="#3E3E3E"/>
</svg>
